Introduction a la manipulation de données avec R.
…
recovered <- recovered %>% 
  mutate(date = lubridate::mdy(date))

Opérations sur les lignes:

Comme pour select et mutate le package dplyr viens avec pleins d’autres fonctions nous en citerons les plus importantes dans cette section.

Les filtre:

Il nous permette de selectionner des lignes qui verifies certaines conditions, la fonction qu’on utilise est filter.

confirmed %>% 
  dplyr::filter(Country.Region == 'Algeria', confirmed > 0)

## # A tibble: 44 x 6
##    Province.State Country.Region   Lat  Long confirmed date      
##    <chr>          <chr>          <dbl> <dbl>     <dbl> <date>    
##  1 <NA>           Algeria         28.0  1.66         1 2020-02-25
##  2 <NA>           Algeria         28.0  1.66         1 2020-02-26
##  3 <NA>           Algeria         28.0  1.66         1 2020-02-27
##  4 <NA>           Algeria         28.0  1.66         1 2020-02-28
##  5 <NA>           Algeria         28.0  1.66         1 2020-02-29
##  6 <NA>           Algeria         28.0  1.66         1 2020-03-01
##  7 <NA>           Algeria         28.0  1.66         3 2020-03-02
##  8 <NA>           Algeria         28.0  1.66         5 2020-03-03
##  9 <NA>           Algeria         28.0  1.66        12 2020-03-04
## 10 <NA>           Algeria         28.0  1.66        12 2020-03-05
## # … with 34 more rows

Arranger les Valeurs:

Pour explorer les valeurs numerique il est important de les ordonnés afin de verifier si il y a des annomalies. Pour cela on utilise la fonction, arrange.

library(dplyr)
confirmed %>% 
  arrange(confirmed)

## # A tibble: 20,514 x 6
##    Province.State Country.Region   Lat  Long confirmed date      
##    <chr>          <chr>          <dbl> <dbl>     <dbl> <date>    
##  1 <NA>           Afghanistan       33    65         0 2020-01-22
##  2 <NA>           Afghanistan       33    65         0 2020-01-23
##  3 <NA>           Afghanistan       33    65         0 2020-01-24
##  4 <NA>           Afghanistan       33    65         0 2020-01-25
##  5 <NA>           Afghanistan       33    65         0 2020-01-26
##  6 <NA>           Afghanistan       33    65         0 2020-01-27
##  7 <NA>           Afghanistan       33    65         0 2020-01-28
##  8 <NA>           Afghanistan       33    65         0 2020-01-29
##  9 <NA>           Afghanistan       33    65         0 2020-01-30
## 10 <NA>           Afghanistan       33    65         0 2020-01-31
## # … with 20,504 more rows
…
